…
``` r
D_crimes_check<-jhu_joined_crimes_filt %>% as.data.frame %>% select(- geometry) %>% 
  mutate(month_date = str_c(str_sub(CrimeDateT, 1,8),"01") %>% ymd) %>% mutate(
    viol_non_viol = case_when(Descriptio%in%c("AGG. ASSAULT","COMMON ASSAULT","HOMICIDE","RAPE","ROBBERY - CARJACKING","ROBBERY - COMMERCIAL",
                                              "ROBBERY - RESIDENCE","ROBBERY - STREET","SHOOTING")~"violent",
                              
                              Descriptio%in%c("ARSON","AUTO THEFT","BURGLARY","LARCENY","LARCENY FROM AUTO")~"non_violent")
  )

samp <- sample(1:nrow(to_check), 30)
to_check[samp,]
```

    ## # A tibble: 30 × 5
    ## # Groups:   month_date, id [30]
    ##    month_date id             viol_non_viol     n population
    ##    <date>     <chr>          <chr>         <int>      <dbl>
    ##  1 2016-01-01 homewood       violent           1      15010
    ##  2 2014-02-01 homewood       non_violent       4      16169
    ##  3 2018-04-01 east_baltimore violent           9      15046
    ##  4 2021-06-01 homewood       violent           1      14068
    ##  5 2020-12-01 homewood       violent           1      14068
    ##  6 2018-10-01 east_baltimore non_violent       7      15046
    ##  7 2012-03-01 east_baltimore non_violent      10      14676
    ##  8 2014-12-01 east_baltimore non_violent      11      15055
    ##  9 2013-09-01 east_baltimore violent           9      14479
    ## 10 2014-10-01 homewood       non_violent       4      16169
    ## # … with 20 more rows
    ## # ℹ Use `print(n = ...)` to see more rows
…
